<?xml version="1.0" encoding="UTF-8" standalone="no"?>
<svg
   xmlns:dc="http://purl.org/dc/elements/1.1/"
   xmlns:cc="http://creativecommons.org/ns#"
   xmlns:rdf="http://www.w3.org/1999/02/22-rdf-syntax-ns#"
   xmlns:svg="http://www.w3.org/2000/svg"
   xmlns="http://www.w3.org/2000/svg"
   xmlns:sodipodi="http://sodipodi.sourceforge.net/DTD/sodipodi-0.dtd"
   xmlns:inkscape="http://www.inkscape.org/namespaces/inkscape"
   width="256px"
   height="256px"
   viewBox="0 0 256 256"
   version="1.1"
   id="SVGRoot"
   inkscape:version="1.0.1 (3bc2e813f5, 2020-09-07)"
   sodipodi:docname="fm_logo_light.svg">
  <defs
     id="defs26" />
  <sodipodi:namedview
     id="base"
     pagecolor="#ffffff"
     bordercolor="#666666"
     borderopacity="1.0"
     inkscape:pageopacity="0.0"
     inkscape:pageshadow="2"
     inkscape:zoom="1.4142135"
     inkscape:cx="171.51925"
     inkscape:cy="140.13246"
     inkscape:document-units="px"
     inkscape:current-layer="layer1"
     showgrid="false"
     inkscape:window-width="1920"
     inkscape:window-height="1043"
     inkscape:window-x="1920"
     inkscape:window-y="0"
     inkscape:window-maximized="1"
     inkscape:grid-bbox="true"
     inkscape:document-rotation="0" />
  <metadata
     id="metadata29">
    <rdf:RDF>
      <cc:Work
         rdf:about="">
        <dc:format>image/svg+xml</dc:format>
        <dc:type
           rdf:resource="http://purl.org/dc/dcmitype/StillImage" />
        <dc:title />
      </cc:Work>
    </rdf:RDF>
  </metadata>
  <g
     inkscape:label="Layer 1"
     inkscape:groupmode="layer"
     id="layer1">
    <circle
       style="fill:#000000;fill-opacity:1;stroke:none;stroke-width:1.66454566;stroke-opacity:1"
       id="path47"
       cx="128"
       cy="128"
       r="128"
       inkscape:export-xdpi="12"
       inkscape:export-ydpi="12" />
    <g
       id="g172"
       transform="translate(5.314999,-8.7775457)"
       inkscape:export-xdpi="12"
       inkscape:export-ydpi="12">
      <rect
         y="86.634247"
         x="127.27922"
         height="82.731499"
         width="15.556349"
         id="rect49"
         style="fill:#ffffff;fill-opacity:1;stroke:none;stroke-width:1.10976517;stroke-opacity:1" />
      <ellipse
         transform="matrix(1,0,0.0464614,0.99892009,0,0)"
         ry="3.8048077"
         rx="7.7781744"
         cy="86.033737"
         cx="131.06012"
         id="path91"
         style="fill:#000000;fill-opacity:1;stroke:none;stroke-width:0.73270792;stroke-opacity:1" />
      <ellipse
         transform="matrix(1,0,0.0464614,0.99892009,0,0)"
         ry="3.8048077"
         rx="7.7781744"
         cy="169.29709"
         cx="127.19161"
         id="path91-5"
         style="fill:#ffffff;fill-opacity:1;stroke:none;stroke-width:0.73270792;stroke-opacity:1" />
    </g>
    <g
       id="g138"
       transform="rotate(2.1736116,735.18521,7773.5273)"
       inkscape:export-xdpi="12"
       inkscape:export-ydpi="12">
      <rect
         transform="rotate(-15.094043)"
         y="67.779259"
         x="-164.84383"
         height="82.731499"
         width="15.556349"
         id="rect49-3"
         style="fill:#ffffff;fill-opacity:1;stroke:none;stroke-width:1.10976517;stroke-opacity:1" />
      <ellipse
         transform="matrix(0.96549971,-0.26040413,0.30498139,0.95235831,0,0)"
         ry="3.8048077"
         rx="7.7781744"
         cy="67.158379"
         cx="-160.18594"
         id="path91-57"
         style="fill:#000000;fill-opacity:1;stroke:none;stroke-width:0.73270792;stroke-opacity:1" />
      <ellipse
         transform="matrix(0.96549971,-0.26040413,0.30498139,0.95235831,0,0)"
         ry="3.8048077"
         rx="7.7781744"
         cy="150.42174"
         cx="-164.05444"
         id="path91-5-0"
         style="fill:#ffffff;fill-opacity:1;stroke:none;stroke-width:0.73270792;stroke-opacity:1" />
    </g>
    <g
       id="g138-3"
       transform="rotate(-4.2954464,-327.25217,-4055.6526)"
       inkscape:export-xdpi="12"
       inkscape:export-ydpi="12">
      <rect
         transform="rotate(-15.094043)"
         y="67.779259"
         x="-164.84383"
         height="82.731499"
         width="15.556349"
         id="rect49-3-4"
         style="fill:#ffffff;fill-opacity:1;stroke:none;stroke-width:1.10976517;stroke-opacity:1" />
      <ellipse
         transform="matrix(0.96549971,-0.26040413,0.30498139,0.95235831,0,0)"
         ry="3.8048077"
         rx="7.7781744"
         cy="67.158379"
         cx="-160.18594"
         id="path91-57-9"
         style="fill:#000000;fill-opacity:1;stroke:none;stroke-width:0.73270792;stroke-opacity:1" />
      <ellipse
         transform="matrix(0.96549971,-0.26040413,0.30498139,0.95235831,0,0)"
         ry="3.8048077"
         rx="7.7781744"
         cy="150.42174"
         cx="-164.05444"
         id="path91-5-0-0"
         style="fill:#ffffff;fill-opacity:1;stroke:none;stroke-width:0.73270792;stroke-opacity:1" />
    </g>
    <rect
       style="fill:#ffffff;fill-opacity:1;stroke:none;stroke-opacity:1"
       id="rect206"
       width="12.5"
       height="108.5"
       x="-225"
       y="-18.5" />
    <rect
       style="fill:#ffffff;fill-opacity:1;stroke:none;stroke-width:1.56843;stroke-opacity:1"
       id="rect301"
       width="185.75"
       height="4.3049326"
       x="37.125"
       y="169.75"
       ry="2.1524663"
       inkscape:export-xdpi="12"
       inkscape:export-ydpi="12" />
    <text
       xml:space="preserve"
       style="font-style:normal;font-weight:normal;font-size:40px;line-height:1.25;font-family:sans-serif;letter-spacing:0px;word-spacing:0px;fill:#000000;fill-opacity:1;stroke:none"
       x="83.776978"
       y="109.24939"
       id="text285"><tspan
         sodipodi:role="line"
         id="tspan283"
         x="83.776978"
         y="109.24939" /></text>
    <text
       xml:space="preserve"
       style="font-style:normal;font-variant:normal;font-weight:normal;font-stretch:normal;font-size:120px;line-height:1.25;font-family:Mansalva;-inkscape-font-specification:'Mansalva, Normal';font-variant-ligatures:normal;font-variant-caps:normal;font-variant-numeric:normal;font-variant-east-asian:normal;letter-spacing:0px;word-spacing:0px;fill:#ffffff;fill-opacity:1;stroke:none"
       x="45.22644"
       y="160.61122"
       id="text289"
       inkscape:export-xdpi="12"
       inkscape:export-ydpi="12"><tspan
         sodipodi:role="line"
         id="tspan287"
         x="45.22644"
         y="160.61122"
         style="font-style:normal;font-variant:normal;font-weight:normal;font-stretch:normal;font-size:120px;font-family:Mansalva;-inkscape-font-specification:'Mansalva, Normal';font-variant-ligatures:normal;font-variant-caps:normal;font-variant-numeric:normal;font-variant-east-asian:normal">F</tspan></text>
  </g>
  <g
     inkscape:groupmode="layer"
     id="layer2"
     inkscape:label="F" />
</svg>
